…
fivethirtyeight_slackchat <- fivethirtyeight_slackchat %>% 
  mutate(link = purrr::map(page_link, get_links)) %>% 
  unnest(link)

fivethirtyeight_slackchat

## # A tibble: 260 × 3
##    page_num page_link                                          links            
##       <int> <glue>                                             <chr>            
##  1        1 https://fivethirtyeight.com/tag/slack-chat/page/1/ https://fivethir…
##  2        1 https://fivethirtyeight.com/tag/slack-chat/page/1/ https://fivethir…
##  3        1 https://fivethirtyeight.com/tag/slack-chat/page/1/ https://fivethir…
##  4        1 https://fivethirtyeight.com/tag/slack-chat/page/1/ https://fivethir…
##  5        1 https://fivethirtyeight.com/tag/slack-chat/page/1/ https://fivethir…
##  6        1 https://fivethirtyeight.com/tag/slack-chat/page/1/ https://fivethir…
##  7        1 https://fivethirtyeight.com/tag/slack-chat/page/1/ https://fivethir…
##  8        1 https://fivethirtyeight.com/tag/slack-chat/page/1/ https://fivethir…
##  9        1 https://fivethirtyeight.com/tag/slack-chat/page/1/ https://fivethir…
## 10        1 https://fivethirtyeight.com/tag/slack-chat/page/1/ https://fivethir…
## # … with 250 more rows

Then we do it all over again to grab the text from each link!

test_link <- 'https://fivethirtyeight.com/features/our-way-too-early-2024-republican-presidential-primary-draft/'

test_link %>% 
  rvest::read_html() %>% 
  rvest::html_nodes('.single-post-content > p') %>% 
  rvest::html_text() %>% 
  as_tibble()

## # A tibble: 180 × 1
##    value                                                                        
##    <chr>                                                                        
##  1 "Welcome to FiveThirtyEight’s politics chat. The transcript below has been l…
##  2 "sarah (Sarah Frostenson, politics editor): We’re still more than three year…
##  3 "It’s been a while, so the rules are as follows: Four rounds, so between the…
##  4 "The order is:"                                                              
##  5 "And I used random.org to determine the order (so it’s clearly not rigged)." 
##  6 "geoffrey.skelley (Geoffrey Skelley, elections analyst): I get the boring pi…
##  7 "sarah: It’s so funny to me that everyone thinks there is already an obvious…
##  8 "alex (Alex Samuels, politics reporter): Don’t steal my pick, Nathaniel!"    
##  9 "nrakich (Nathaniel Rakich, elections analyst): I’m stealing it, Alex!"      
## 10 "sarah: Alright, Geoffrey. You’re up!! What is this obvious pick of yours? " 
## # … with 170 more rows
…
