…
<script src="{{< blogdown/postref >}}index_files/header-attrs/header-attrs.js">

My previous post had quite some code repetitions that could have been cut down by defining some custom functions. Then I encountered several Hadley’s talks on functional programming with purrr and I was thrilled.

The concept is the following:

library(tidyverse)
library(purrr)

diamonds %>% 
  split(diamonds$color)

## $D
## # A tibble: 6,775 × 10
##    carat cut       color clarity depth table price     x     y     z
##    <dbl> <ord>     <ord> <ord>   <dbl> <dbl> <int> <dbl> <dbl> <dbl>
##  1  0.23 Very Good D     VS2      60.5    61   357  3.96  3.97  2.4 
##  2  0.23 Very Good D     VS1      61.9    58   402  3.92  3.96  2.44
##  3  0.26 Very Good D     VS2      60.8    59   403  4.13  4.16  2.52
##  4  0.26 Good      D     VS2      65.2    56   403  3.99  4.02  2.61
##  5  0.26 Good      D     VS1      58.4    63   403  4.19  4.24  2.46
##  6  0.22 Premium   D     VS2      59.3    62   404  3.91  3.88  2.31
##  7  0.3  Premium   D     SI1      62.6    59   552  4.23  4.27  2.66
##  8  0.3  Ideal     D     SI1      62.5    57   552  4.29  4.32  2.69
##  9  0.3  Ideal     D     SI1      62.1    56   552  4.3   4.33  2.68
## 10  0.24 Very Good D     VVS1     61.5    60   553  3.97  4     2.45
## # … with 6,765 more rows
## 
## $E
## # A tibble: 9,797 × 10
##    carat cut       color clarity depth table price     x     y     z
##    <dbl> <ord>     <ord> <ord>   <dbl> <dbl> <int> <dbl> <dbl> <dbl>
##  1  0.23 Ideal     E     SI2      61.5    55   326  3.95  3.98  2.43
##  2  0.21 Premium   E     SI1      59.8    61   326  3.89  3.84  2.31
##  3  0.23 Good      E     VS1      56.9    65   327  4.05  4.07  2.31
##  4  0.22 Fair      E     VS2      65.1    61   337  3.87  3.78  2.49
##  5  0.2  Premium   E     SI2      60.2    62   345  3.79  3.75  2.27
##  6  0.32 Premium   E     I1       60.9    58   345  4.38  4.42  2.68
##  7  0.23 Very Good E     VS2      63.8    55   352  3.85  3.92  2.48
##  8  0.23 Very Good E     VS1      60.7    59   402  3.97  4.01  2.42
##  9  0.23 Very Good E     VS1      59.5    58   402  4.01  4.06  2.4 
## 10  0.23 Good      E     VS1      64.1    59   402  3.83  3.85  2.46
## # … with 9,787 more rows
## 
## $F
## # A tibble: 9,542 × 10
##    carat cut       color clarity depth table price     x     y     z
##    <dbl> <ord>     <ord> <ord>   <dbl> <dbl> <int> <dbl> <dbl> <dbl>
##  1  0.22 Premium   F     SI1      60.4    61   342  3.88  3.84  2.33
##  2  0.23 Very Good F     VS1      60.9    57   357  3.96  3.99  2.42
##  3  0.23 Very Good F     VS1      60      57   402  4     4.03  2.41
##  4  0.23 Very Good F     VS1      59.8    57   402  4.04  4.06  2.42
##  5  0.23 Good      F     VS1      58.2    59   402  4.06  4.08  2.37
##  6  0.29 Premium   F     SI1      62.4    58   403  4.24  4.26  2.65
##  7  0.24 Very Good F     SI1      60.9    61   404  4.02  4.03  2.45
##  8  0.26 Very Good F     VVS2     59.2    60   554  4.19  4.22  2.49
##  9  0.7  Good      F     VS1      59.4    62  2759  5.71  5.76  3.4 
## 10  0.96 Fair      F     SI2      66.3    62  2759  6.27  5.95  4.07
## # … with 9,532 more rows
## 
## $G
## # A tibble: 11,292 × 10
##    carat cut       color clarity depth table price     x     y     z
##    <dbl> <ord>     <ord> <ord>   <dbl> <dbl> <int> <dbl> <dbl> <dbl>
##  1  0.23 Very Good G     VVS2     60.4    58   354  3.97  4.01  2.41
##  2  0.23 Ideal     G     VS1      61.9    54   404  3.93  3.95  2.44
##  3  0.28 Ideal     G     VVS2     61.4    56   553  4.19  4.22  2.58
##  4  0.31 Very Good G     SI1      63.3    57   553  4.33  4.3   2.73
##  5  0.31 Premium   G     SI1      61.8    58   553  4.35  4.32  2.68
##  6  0.24 Premium   G     VVS1     62.3    59   554  3.95  3.92  2.45
##  7  0.7  Ideal     G     VS2      61.6    56  2757  5.7   5.67  3.5 
##  8  0.78 Very Good G     SI2      63.8    56  2759  5.81  5.85  3.72
##  9  0.74 Ideal     G     SI1      61.6    55  2760  5.8   5.85  3.59
## 10  0.75 Premium   G     VS2      61.7    58  2760  5.85  5.79  3.59
## # … with 11,282 more rows
## 
## $H
## # A tibble: 8,304 × 10
##    carat cut       color clarity depth table price     x     y     z
##    <dbl> <ord>     <ord> <ord>   <dbl> <dbl> <int> <dbl> <dbl> <dbl>
##  1  0.26 Very Good H     SI1      61.9    55   337  4.07  4.11  2.53
##  2  0.23 Very Good H     VS1      59.4    61   338  4     4.05  2.39
##  3  0.23 Very Good H     VS1      61      57   353  3.94  3.96  2.41
##  4  0.31 Good      H     SI1      64      54   402  4.29  4.31  2.75
##  5  0.32 Good      H     SI2      63.1    56   403  4.34  4.37  2.75
##  6  0.32 Very Good H     SI2      61.8    55   403  4.35  4.42  2.71
##  7  0.32 Good      H     SI2      63.8    56   403  4.36  4.38  2.79
##  8  0.29 Very Good H     SI2      60.7    60   404  4.33  4.37  2.64
##  9  0.3  Very Good H     SI1      63.1    56   554  4.29  4.27  2.7 
## 10  0.3  Premium   H     SI1      62.9    59   554  4.28  4.24  2.68
## # … with 8,294 more rows
## 
## $I
## # A tibble: 5,422 × 10
##    carat cut       color clarity depth table price     x     y     z
##    <dbl> <ord>     <ord> <ord>   <dbl> <dbl> <int> <dbl> <dbl> <dbl>
##  1  0.29 Premium   I     VS2      62.4    58   334  4.2   4.23  2.63
##  2  0.24 Very Good I     VVS1     62.3    57   336  3.95  3.98  2.47
##  3  0.3  Ideal     I     SI2      62      54   348  4.31  4.34  2.68
##  4  0.3  Good      I     SI2      63.3    56   351  4.26  4.3   2.71
##  5  0.24 Premium   I     VS1      62.5    57   355  3.97  3.94  2.47
##  6  0.33 Ideal     I     SI2      61.8    55   403  4.49  4.51  2.78
##  7  0.33 Ideal     I     SI2      61.2    56   403  4.49  4.5   2.75
##  8  0.32 Ideal     I     SI1      60.9    55   404  4.45  4.48  2.72
##  9  0.3  Ideal     I     SI2      61      59   405  4.3   4.33  2.63
## 10  0.3  Very Good I     SI1      62.6    57   405  4.25  4.28  2.67
## # … with 5,412 more rows
## 
## $J
## # A tibble: 2,808 × 10
##    carat cut       color clarity depth table price     x     y     z
##    <dbl> <ord>     <ord> <ord>   <dbl> <dbl> <int> <dbl> <dbl> <dbl>
##  1  0.31 Good      J     SI2      63.3    58   335  4.34  4.35  2.75
##  2  0.24 Very Good J     VVS2     62.8    57   336  3.94  3.96  2.48
##  3  0.3  Good      J     SI1      64      55   339  4.25  4.28  2.73
##  4  0.23 Ideal     J     VS1      62.8    56   340  3.93  3.9   2.46
##  5  0.31 Ideal     J     SI2      62.2    54   344  4.35  4.37  2.71
##  6  0.3  Good      J     SI1      63.4    54   351  4.23  4.29  2.7 
##  7  0.3  Good      J     SI1      63.8    56   351  4.23  4.26  2.71
##  8  0.3  Very Good J     SI1      62.7    59   351  4.21  4.27  2.66
##  9  0.31 Very Good J     SI1      59.4    62   353  4.39  4.43  2.62
## 10  0.31 Very Good J     SI1      58.1    62   353  4.44  4.47  2.59
## # … with 2,798 more rows
